{
    "doubles": [],
    "floats": [
        "DL1r_pu",
        "DL1r_pc",
        "DL1r_pb",
        "DL1dv00_pu",
        "DL1dv00_pc",
        "DL1dv00_pb"
    ],
    "chars": [],
    "jet_int_variables": [
        "HadronConeExclTruthLabelID",
        "HadronConeExclExtendedTruthLabelID",
        "HadronGhostTruthLabelID",
        "HadronGhostExtendedTruthLabelID"
    ],
    "jet_floats": [
        "pt",
        "eta",
        "mass",
        "energy",
        "relativeDeltaRToVRJet",
        "deltaRToVRJet"
    ]
}