{
    "n_to_save": 40,
    "selection": {
        "file": "ip3d-loose-track-cuts.json",
        "d0_maximum": null,
        "z0_maximum": null,
        "pix_holes_maximum": 5
    },
    "sort_order": "abs_beamspot_d0",
    "btagging_link": "",
    "variables": {
        "uchars": [
            "numberOfInnermostPixelLayerHits",
            "numberOfNextToInnermostPixelLayerHits",
            "numberOfPixelHits",
            "numberOfSCTHits"
        ],
        "halves": [
            "chiSquared",
            "numberDoF",
            "radiusOfFirstHit"
        ],
        "floats": [
            "qOverP"
        ],
        "customs": [
            "pt",
            "qOverPUncertainty"
        ],
        "half_precision_customs": [
            "d0",
            "d0Uncertainty",
            "IP2D_signed_d0",
            "phiUncertainty",
            "thetaUncertainty",
            "deta",
            "dphi",
            "dr",
            "ptfrac",
            "z0RelativeToBeamspot",
            "z0RelativeToBeamspotUncertainty"
        ]
    },
    "ip_prefix": "poboyIp_"
}
