{
    "jet_collection": "AntiKt4EMPFlowJets",
    "calibration": {
        "file": "fragments/pflow-calibration.json"
    },
    "selection": {
        "file": "fragments/pflow-selection.json"
    },
    "btagging_link": "btaggingLink",
    "vertex_collection": "PrimaryVertices",
    "dl2_configs": [],
    "variables": {
        "btag": {
            "file": "fragments/single-btag-variables.json",
            "floats": [],
            "jet_floats": []
        },
        "default_mapping": {
            "file": "fragments/default-mapping.json"
        }
    },
    "tracks": [
        {
            "ip_prefix": "simpleIp_",
            "n_to_save": 40,
            "selection": {
                "file": "fragments/ip3d-LRT-track-cuts.json"
            },
            "sort_order": "abs_beamspot_d0",
            "btagging_link": "",
            "input_name": "TracksForMinimalJetTag",
            "output_name": "tracks_from_jet",
            "variables": {
                "file": "fragments/single-btag-track-variables.json"
            }
        }
    ],
    "truths": [
        {
            "file": "fragments/overlap-leptons-TRUTH3.json"
        }
    ],
    "decorate": {
        "jet_aug": false,
        "btag_jes": true,
        "soft_muon": false,
        "track_truth_info": false,
        "track_sv_info": false
    }
}
