{
    "jet_collection": "AntiKt4EMTopoJets",
    "calibration": {
        "collection": "AntiKt4EMTopo",
        "configuration": "HLLHC/JES_MC16_HLLHC_Aug2021_rel21.config",
        "seq": "JetArea_Residual_EtaJES",
        "area": "00-04-82"
    },
    "selection": {
        "truth_jet_matching": true,
        "truth_primary_vertex_matching": true,
        "minimum_jvt": -1,
        "minimum_jet_pt": 20000,
        "maximum_jet_absolute_eta": 4
    },
    "vertex_collection": "PrimaryVertices",
    "dl2_configs": [],
    "variables": {
        "btag": {
            "file": "fragments/single-btag-variables.json",
            "floats": [
		        "MV2c10_discriminant"
            ],
            "jet_int_variables": [
                "n_truth_promptLepton"
            ],
            "event": [
                "nTruthInteractionsPerCrossing"
            ]
        },
        "default_mapping": {
            "file": "fragments/default-mapping.json"
        }
    },
    "tracks": [
        {
            "n_to_save": 40,
            "selection": {
                "file": "fragments/ip3d-upgrade-track-cuts.json"
            },
            "sort_order": "abs_beamspot_d0",
            "btagging_link": "btaggingLink",
            "input_name": "BTagTrackToJetAssociator",
            "output_name": "tracks",
            "variables": {
                "file": "fragments/single-btag-track-variables-upgrade.json"
            },
            "ip_prefix": "btagIp_"
        }
    ],
    "truths": [
        {
            "file": "fragments/overlap-leptons.json"
        },
        {
            "association": {
                "file": "fragments/baseline-truth-kinematics.json",
                "particles": "promptLepton"
            },
            "decorate_summary": true
        }
    ],
    "decorate": {
        "jet_aug": true,
        "btag_jes": true,
        "soft_muon": false,
        "truth_pileup": true,
        "track_truth_info": false,
        "track_sv_info": false,
        "track_lepton_id": false
    },
    "btagging_link": "btaggingLink"
}
